{
    "Player1MonitorId": 0,
    "Player2MonitorId": 1,
    "ScoreboardMonitorId": 2,
	"Player1Background": "Background1.png",
	"Player2Background": "Background1.png",
	"ScoreboardBackground": "Background1.png",
	"WebCamWidth": 1280,
    "WebCamHeight": 720
}